KEY,SL,English,German,French,Italian
APP_PLATFORM_UILM.UILM.MODULE_NAME,1,Module Name,Module Name De,Module Name FR,Module Name IT
APP_PLATFORM_UILM.UILM_TITLE,2,Giraffe Language Manager,Giraffe Language Manager DE,Giraffe Language Manager FR,Giraffe Language Manager IT
APP_PLATFORM_UILM.KEY_DETAILS,3,Key Details,Key Details De,Key Details FR,Key Details IT
APP_PLATFORM_UILM.KEY,4,Key Name,Key Name DE,Key Name FR,Key Name IT
APP_PLATFORM_UILM.TYPE,5,Type,Type DE,Type FR,Type IT
APP_PLATFORM_UILM.CONTEXT,6,Context,Context DE,Context FR,Context IT
APP_PLATFORM_UILM.BUTTON,7,Button,Button DE,Button FR,Button IT
APP_PLATFORM_UILM.TITLE,8,Title,Title DE,Title FR,Title IT
APP_PLATFORM_UILM.PAGE_SUBTITLE,9,Page Subtitle,Page Subtitle DE,Page Subtitle FR,Page Subtitle IT
APP_PLATFORM_UILM.DATATABLE,10,Datatable,Datatable DE,Datatable FR,Datatable IT
APP_PLATFORM_UILM.MODAL,11,Modal,Modal DE,Modal FR,Modal IT
APP_PLATFORM_UILM.NAVIGATION,12,Navigation,Navigation DE,Navigation FR,Navigation IT
APP_PLATFORM_UILM.FORM_FIELD,13,Form Field,Form Field DE,Form Field FR,Form Field IT
APP_PLATFORM_UILM.OTHERS,14,Others,Others DE,Others FR,Others IT
APP_PLATFORM_UILM.UILM.APP_NAME,15,App Name,App Name DE,App Name FR,App Name IT
APP_PLATFORM_UILM.UILM.APP_PATH,16,App Path,App Path DE,App Path FR,App Path IT
APP_PLATFORM_UILM.DELETE_KEY,17,Delete,Delete DE,Delete FR,Delete IT
APP_PLATFORM_UILM.DELETE_KEY_DESC,18,Are you sure to delete this key?,Are you sure to delete this key? DE,Are you sure to delete this key? FR,Are you sure to delete this key? IT
APP_PLATFORM_UILM.DELETE_APP,19,Delete App,Delete App DE,Delete App FR,Delete App IT
APP_PLATFORM_UILM.DELETE_APP_DESC,20,Are you sure to delete this app?,Are you sure to delete this app? DE,Are you sure to delete this app? FR,Are you sure to delete this app? IT
TOOLTIP,21,Please wait for {{value}} to resend for categorization,Please wait for {{value}} to resend for categorization DE,Please wait for {{value}} to resend for categorization FR,Please wait for {{value}} to resend for categorization IT
ERROR,22,Error,Error DE,Error FR,Error IT
UPLOADED_DOCUMENTS,23,Uploaded document(s),Uploaded document(s) DE,Uploaded document(s) FR,Uploaded document(s) IT
ARE_YOU_SURE_YOU_WANT_TO_DELETE,24,Are you sure you want to delete,Are you sure you want to delete DE,Are you sure you want to delete FR,Are you sure you want to delete IT
UPLOADED_POLICY_DOCUMENTS,25,Uploaded Policy Documents,Uploaded Policy Documents DE,Uploaded Policy Documents FR,Uploaded Policy Documents IT
SELECT_SECTOR,26,Select sector,Select secto DE,Select secto FR,Select secto IT
PERSONAL_INSURANCE_NONLIFE,27,Personal insurance non life,Personal insurance non life DE,Personal insurance non life FR,Personal insurance non life IT
SECTOR_IS_REQUIRED,28,Sector is required,Sector is required DE,Sector is required FR,Sector is required IT
N/A,29,N/A,N/A DE,N/A FR,N/A IT
FILE_REQUEST_SENT_ON,30,File request sent on,File request sent on DE,File request sent on FR,File request sent on IT
DRAG_DROP_FILE,31,Drag and drop files from inbox in the left panel to assign in an existing process,Drag and drop files from inbox in the left panel to assign in an existing process DE,Drag and drop files from inbox in the left panel to assign in an existing process FR,Drag and drop files from inbox in the left panel to assign in an existing process IT
PLEASE_CHECK_VALID_FILE,32,Please check valid file type.,Please check valid file type. DE,Please check valid file type. FR,Please check valid file type. IT
ATTACHMENTS,33,Attachments,Attachments DE,Attachments FR,Attachments IT
ATTACHED_FILES,34,Attached Files,Attached Files  DE,Attached Files  FR,Attached Files  IT
CANCEL,35,Cancel,Cancel  DE,Cancel  FR,Cancel  IT
BUSINESS_PARTNER_ORG,36,Business Partner Org.,Business Partner Org.  DE,Business Partner Org.  FR,Business Partner Org.  IT
VER,37,ver.,ver. DE,ver. FR,ver. IT
SECTOR ,38,Sector ,Sector DE,Sector  FR,Sector  IT
UVG,39,UVG,UVG DE,UVG FR,UVG IT
OUFL,40,OUFL,OUFL DE,OUFL FR,OUFL IT
UVGZ,41,UVGZ,UVGZ DE,UVGZ FR,UVGZ IT
KTG,42,KTG,KTG DE,KTG FR,KTG IT
SELECT_RECORD_CONTENT,43,Select record content,Select record content DE,Select record content FR,Select record content IT
CONTRACT_FOR_A_PRIVATE_CUSTOMER,44,An insured person,An insured person DE,An insured person FR,An insured person IT
CONTRACT_FOR_A_BUSINESS,45,An insured organization,An insured organization DE,An insured organization FR,An insured organization IT
SEND_EMAIL,46,Send Email,Send Email DE,Send Email FR,Send Email IT
OFFER_TERM,47,Offer Term,Offer Term DE,Offer Term FR,Offer Term IT
SEARCH_COMPANY_ADDRESS,48,Search company address,Search company address DE,Search company address FR,Search company address IT
SEARCH_PRIMARY_ADDRESS,49,Search primary address,Search primary address DE,Search primary address FR,Search primary address IT
SHOW_ATTACHMENTS,50,Show Attachments,Show Attachments DE,Show Attachments FR,Show Attachments IT
DATE_IS_REQUIRED,51,Date is required,Date is required DE,Date is required FR,Date is required IT
ZIP_FILE_WAIT,52,Zip file is being generated, file download will start automatically, be patient,Zip file is being generated, file download will start automatically, be patient de,Zip file is being generated, file download will start automatically, be patient fr,Zip file is being generated, file download will start automatically, be patient it
APPROVE_MANDATE,53,Approve Mandate,Approve Mandate de,Approve Mandate fr,Approve Mandate it
DENY_MANDATE,54,Deny Mandate,Deny Mandate de,Deny Mandate fr,Deny Mandate it
NOT_APPLICABLE,55,Not Applicable,Not Applicable de1,Not Applicable fr,Not Applicable it
ADD_PREVIOUS_BROKER_INFO,56,Add previous broker info,Add previous broker info de,Add previous broker info fr,Add previous broker info it
CONTRACT_PREVIOUS_BROKER,57,Contact previous broker,Contact previous broker de,Contact previous broker fr,Contact previous broker it
SEND_MAIL,58,Send mail,Send mail de,Send mail fr,Send mail it
PREVIOUS_BROKER_INFO,59,Previous broker information,Previous broker information de,Previous broker information fr,Previous broker information it
EMAIL,60,Email,Email,Email fr,Email it
EMAIL_IS_REQUIRED,61,Email is required,Email is required de,Email is required fr,Email is required
MAXIMUM_LENGTH_EXPIRE,62,Maximum length expires,Maximum length expires de,Maximum length expires fr,Maximum length expires it
PHONE_NUMBER_IS_REQUIRED,63,Phone Number is required,Phone Number is required de,Phone Number is required fr,Phone Number is required it
PROCESS_FILES_HAS_BEEN_SENT_THROUGH_OUTLOOK,64,Process file has been sent through outlook,Process file has been sent through outlook DE,Process file has been sent through outlook FR,Process file has been sent through outlook IT
FORM_HAS_BEEN_SAVED_SUCCESSFULLY,65,Form has been saved successfully,Form has been saved successfully DE,Form has been saved successfully FR,Form has been saved successfully IT
GENDER_IS_REQUIRED,66,Gender is required,Gender is required DE,Gender is required FR,Gender is required IT
COUNTRY_IS_MISSING,67,Country is missing,Country is missing DE,Country is missing FR,Country is missing IT
PLEASE_WAIT,68,Please wait,Please wait de,Please wait fr,Please wait IT
THE_SYSTEM_IS_GENERATIN_AGREEMENT,69,The system is generating mandate change agreement form from data.,The system is generating mandate change agreement form from data.,The system is generating mandate change agreement form from data. fr,The system is generating mandate change agreement form from data. it
PDF_WILL_BE_VIEWED_IN_A_FEW_MOMENT,70,The PDF will be previewed here in a few moments.,The PDF will be previewed here in a few moments. de,The PDF will be previewed here in a few moments. fr,The PDF will be previewed here in a few moments. it
CUSTOMER_ISNT_ONBOARDED_YET,71,Customer isn't onboarded yet,Customer isn't onboarded yet de,Customer isn't onboarded yet fr,Customer isn't onboarded yet it
UPDATE_SUCCESSFULLY,72,Update successfully,Update successfully DE,Update successfully FR,Update successfully IT
FORM_HAS_BEEN_SAVED_SUCCESSFULLY,73,Form has been saved successfully,Form has been saved successfully DE,Form has been saved successfully FR,Form has been saved successfully IT
FEEDBACK,74,Feedback,Feedback DE,Feedback FR,Feedback IT
max_10mb,75,(max: 10mb),(max: 10mb) DE,(max: 10mb) FR,(max: 10mb) IT
HAS_BEEN_ACTIVATED,76,has been activated,has been activated DE,has been activated FR,has been activated IT
PLEASE_SELECT_FEEDBACK_TYPE,77,Please select feedback type,Please select feedback type DE,Please select feedback type FR,Please select feedback type IT
UPDATE_SUCCESSFULLY,78,Update Successfully,Update Successfully DE,Update Successfully FR,Update Successfully IT
PROCESS_SEND_FAILED,79,Process send failed,Process send failed DE,Process send failed FR,Process send failed IT
FAILED_TO_REMOVE_TECHNICAL_ERROR,80,Failed to remove technical error,Failed to remove technical error DE,Failed to remove technical error FR,Failed to remove technical error IT
HAS_BEEN_DEACTIVATED,81,has been deactivated,has been deactivated DE,has been deactivated FR,has been deactivated IT
DO_YOU_NEED_ADDITIONAL_INFORMATION_FOR_THIS_MANDATE,82,Do you need additional information for this mandate?,Do you need additional information for this mandate? DE,Do you need additional information for this mandate? FR,Do you need additional information for this mandate? IT
ASSIGNED_FILES,83,Assigned Files,Assigned Files DE,Assigned Files FR,Assigned Files IT
NEW_BROKER_INFORMATION,84,New Broker Information,New Broker Information de,New Broker Information fr,New Broker Information it
LIMIT_2000,85,Word limit 2000 character,Word limit 2000 character DE,Word limit 2000 character FR,Word limit 2000 character IT
REASON_TO_DELETE_FILE,86,State reason to delete the file,State reason to delete the file DE,State reason to delete the file FR,State reason to delete the file IT
QUOTATION_NUMBER_IS_REQUIRED,87,Quotation number is required,Quotation number is required DE,Quotation number is required FR,Quotation number is required IT
NORMAL,88,Normal,Normal de,Normal fr,Normal it
HIGH,89,High,High de,High fr,High it
LOW,90,Low,Low de,Low fr,Low it
MEDIUM,91,Medium,Medium de,Medium fr,Medium it
PROCESSING_RECEIVE_FILE_FROM_INSURER,92,Processing of receive file from insurer,Processing of receive file from insurer DE,Processing of receive file from insurer FR,Processing of receive file from insurer IT
PROCESSING_RECEIVE_FILE_FROM_INSURER,93,Processing of receive file from insurer,Processing of receive file from insurer DE,Processing of receive file from insurer FR,Processing of receive file from insurer IT
PROCESSING_RECEIVE_FILE_FROM_INSURER,94,Processing of receive file from insurer,Processing of receive file from insurer DE,Processing of receive file from insurer FR,Processing of receive file from insurer IT
PROCESSING_RECEIVE_FILE_FROM_INSURER,95,Processing of receive file from insurer,Processing of receive file from insurer DE,Processing of receive file from insurer FR,Processing of receive file from insurer IT
PHONE,96,Phone,Phone DE,Phone FR,Phone IT
MOBILE_NUMBER,97,Mobile No.,Mobile No. DE,Mobile No. FR,Mobile No. IT
EMAIL,98,Email,Email DE,Email FR,Email IT
PROCEED,99,Proceed,Proceed DE,Proceed FR,Proceed IT
LOGIN_WITH_MICROSOFT,100,Login with Microsoft,Login with Microsoft DE,Login with Microsoft FR,Login with Microsoft IT
LOGIN_AS_A_CLIENT,101,Login as a Client,Login as a Client DE,Login as a Client FR,Login as a Client IT
LOGGED_IN_SUCCESS_TEAMS,102,You have logged in successfully, please click on the 'Save' button to continue,You have logged in successfully, please click on the 'Save' button to continue De,You have logged in successfully, please click on the 'Save' button to continue FR,You have logged in successfully, please click on the 'Save' button to continue IT
TAB_ALREADY_ADDED,103,You have already added giraffe teams tab in this channel. You can't add multiple Giraffe tabs in same channel,You have already added giraffe teams tab in this channel. You can't add multiple Giraffe tabs in same channel DE,You have already added giraffe teams tab in this channel. You can't add multiple Giraffe tabs in same channel FR,You have already added giraffe teams tab in this channel. You can't add multiple Giraffe tabs in same channel IT
SSO_LOGIN_FAILED,104,SSO Login Failed, try again!,SSO Login Failed, try again! DE,SSO Login Failed, try again! FR,SSO Login Failed, try again! IT
RESET_YOUR_PASSWORD,105,Reset Your Password,Reset Your Password DE,Reset Your Password FR,Reset Your Password IT
PLEASE_PROVIDE_EMAIL_ADDRESS,106,Please provide your email address and a password reset link will be sent to your email.,Please provide your email address and a password reset link will be sent to your email. DE,Please provide your email address and a password reset link will be sent to your email. FR,Please provide your email address and a password reset link will be sent to your email. IT
PASSWORD_RESET_EMAIL_SENT,107,An email with password reset instructions has been sent to your email.,An email with password reset instructions has been sent to your email. DE,An email with password reset instructions has been sent to your email. FR,An email with password reset instructions has been sent to your email. IT
GO_BACK,108,Go back,Go back DE,Go back FR,Go back IT
CONTINUE,109,Continue,Continue DE,Continue FR,Continue IT
EMAIL,110,Email,Email DE,Email FR,Email IT
EMAIL_IS_REQUIRED,111,Email is required,Email is required DE,Email is required FR,Email is required IT
CAPTCHA,112,Captcha,Captcha DE,Captcha FR,Captcha IT
FORGOT_PASSWORD,113,Forgot password?,Forgot password? DE,Forgot password? FR,Forgot password? IT
LOGIN,114,Login,Login DE,Login FR,Login IT
PASSWORD_IS_REQUIRED,115,Password is required,Password is required DE,Password is required FR,Password is required IT
PASSWORD_RESET_LINK_EXPIRED,116,Password reset link expired, try again requesting for new mail,Password reset link expired, try again requesting for new mail DE,Password reset link expired, try again requesting for new mail FR,Password reset link expired, try again requesting for new mail IT
PASSWORD_RESET_SUCCESS,117,Password changed successfully, you can login now.,Password changed successfully, you can login now. DE,Password changed successfully, you can login now. FR,Password changed successfully, you can login now. IT
PASSWORD_RESET_FAILED,118,Password reset failed,Password reset failed DE,Password reset failed FR,Password reset failed IT
ARE_YOU_SURE,119,Are you sure?,Are you sure? DE,Are you sure? FR,Are you sure? IT
GIRAFFE_REMOVE_CONTENT,120,Removing this tab will remove access to Giraffe in this channel for all its members.        You can add Giraffe as a tab again later or use the,Removing this tab will remove access to Giraffe in this channel for all its members.        You can add Giraffe as a tab again later or use the DE,Removing this tab will remove access to Giraffe in this channel for all its members.        You can add Giraffe as a tab again later or use the FR,Removing this tab will remove access to Giraffe in this channel for all its members.        You can add Giraffe as a tab again later or use the IT
INVALID_CAPTCHA_VALUE,121,Invalid captcha value,Invalid captcha value DE,Invalid captcha value FR,Invalid captcha value IT
EMAIL_NOT_FOUND,122,Invalid email address provided,Invalid email address provided DE,Invalid email address provided FR,Invalid email address provided IT
PASSWORD_RESET_MAIL_SENT,123,Password reset mail sent, please check your email.,Password reset mail sent, please check your email. DE,Password reset mail sent, please check your email. FR,Password reset mail sent, please check your email. IT
ALL_USERS,124,All Users,All Users DE,All Users FR,All Users IT
ORGANIZATION_UNITS,125,Organization Units,Organization Units DE,Organization Units FR,Organization Units IT
ALL_ORGANIZATION_UNITS,126,All Organization Units,All Organization Units DE,All Organization Units FR,All Organization Units IT
ALL_USERS_DESCRIPTION,127,A list of all active and inactive users associated with your organization,A list of all active and inactive users associated with your organization DE,A list of all active and inactive users associated with your organization FR,A list of all active and inactive users associated with your organization IT
ORGANIZATION_UNITS_DESCRIPTION,128,A list of all your organization units,A list of all your organization units DE,A list of all your organization units FR,A list of all your organization units IT
PROCESSES_DESCRIPTION,129,Manage all active and completed business processes,Manage all active and completed business processes DE,Manage all active and completed business processes FR,Manage all active and completed business processes IT
INSURER_EMAILS,130,Insurer Emails,Insurer Emails DE,Insurer Emails FR,Insurer Emails IT
INSURER_EMAILS_DESCRIPTION,131,View a list of clients that are already onboarded with your organization,View a list of clients that are already onboarded with your organization DE,View a list of clients that are already onboarded with your organization FR,View a list of clients that are already onboarded with your organization IT
ALL_BROKERS_DESCRIPTION,132,A list of all brokers onboarded with your organization,A list of all brokers onboarded with your organization DE,A list of all brokers onboarded with your organization FR,A list of all brokers onboarded with your organization IT
INSURER_ORGANIZATIONS,133,Insurer Organizations,Insurer Organizations DE,Insurer Organizations FR,Insurer Organizations IT
INSURER_ORGANIZATIONS_DESCRIPTION,134,A list of all insurers onboarded with your organization,A list of all insurers onboarded with your organization DE,A list of all insurers onboarded with your organization FR,A list of all insurers onboarded with your organization IT
BROKER_ORGANIZATIONS,135,Broker Organizations,Broker Organizations DE,Broker Organizations FR,Broker Organizations IT
BROKER_ORGANIZATIONS_DESCRIPTION,136,View a list of brokers that are already onboarded with your organization,View a list of brokers that are already onboarded with your organization DE,View a list of brokers that are already onboarded with your organization FR,View a list of brokers that are already onboarded with your organization IT
ALL_CLIENTS_DESCRIPTION,137,View a list of clients that are already onboarded with your organization,View a list of clients that are already onboarded with your organization DE,View a list of clients that are already onboarded with your organization FR,View a list of clients that are already onboarded with your organization IT
ALL_INSURERS,138,All Insurers ,All Insurers DE,All Insurers FR,All Insurers IT
CORE_PROCESS_LIST,139,Core Process List ,Core Process List DE,Core Process List FR,Core Process List IT
CORE_PROCESS_LIST_DESCRIPTION,140,View all activities performed by users of your organization,View all activities performed by users of your organization DE,View all activities performed by users of your organization FR,View all activities performed by users of your organization IT
IG_ROLES,141,IG Roles,IG Roles DE,IG Roles FR,IG Roles IT
IG_ROLES_DESCRIPTION,142,A list of all brokers onboarded with your organization,A list of all brokers onboarded with your organization DE,A list of all brokers onboarded with your organization FR,A list of all brokers onboarded with your organization IT
ALL_CUSTOMERS,143,All Customers,All Customers DE,All Customers FR,All Customers IT
ALL_CUSTOMERS_DESCRIPTION,144,View a list of clients that are already onboarded with your organization,View a list of clients that are already onboarded with your organization DE,View a list of clients that are already onboarded with your organization FR,View a list of clients that are already onboarded with your organization IT
ACTIVITY_TIMELINE,145,Activity Timeline,Activity Timeline DE,Activity Timeline FR,Activity Timeline IT
ACTIVITY_TIMELINE_DESCRIPTION,146,View all activities performed by users of your organization,View all activities performed by users of your organization DE,View all activities performed by users of your organization FR,View all activities performed by users of your organization IT
PROCESSES,147,Processes,Processes DE,Processes FR,Processes IT
ONBOARDED,148,Onboarded,Onboarded DE,Onboarded FR,Onboarded IT
INVITED,149,Invited,Invited DE,Invited FR,Invited IT
RESTART_AS_NEW_PROCESS,150,Restart As New Process,Restart As New Process DE,Restart As New Process FR,Restart As New Process IT
RESTART_PROCESS_WITH_EXISTING_DATA,151,You can restart the process with the existing data of this process.,You can restart the process with the existing data of this process. DE,You can restart the process with the existing data of this process. FR,You can restart the process with the existing data of this process. IT
RESTART_PROCESS,152,Restart Process,Restart Process DE,Restart Proces FR,Restart Process IT
PARENT_PROCESS,153,Parent Process,Parent Process DE,Parent Process FR,Parent Process IT
ADD_NEW_EMAIL,154,Add New Email,Add New Email DE,Add New Email FR,Add New Email IT
EDIT,155,Edit,Edit DE,Edit FR,Edit IT
INSURER_ORGANIZATION,156,Insurer Organization,Insurer Organization DE,Insurer Organization FR,Insurer Organization IT
BROKER_ORGANIZATION,157,Broker Organization,Broker Organization DE,Broker Organization FR,Broker Organization IT
PROCESS,158,Process,Process DE,Process FR,Process IT
CONTENT,159,Content,Content DE,Content FR,Content IT
INSURER_EMAIL,160,Insurer Email,Insurer Email DE,Insurer Email FR,Insurer Email IT
INVALID_EMAIL_ADDRESS,161,Invalid Email Address,Invalid Email Address DE,Invalid Email Address FR,Invalid Email Address IT
DELETE_EMAIL,162,Delete Email,Delete Email DE,Delete Email FR,Delete Email IT
EMAIL_DELETE_WARNING_MESSAGE,163,Are you sure you want to delete this email?,Are you sure you want to delete this email? DE,Are you sure you want to delete this email? FR,Are you sure you want to delete this email? IT
CANCEL,164,Cancel,Cancel DE,Cancel FR,Cancel IT
PROCESS_FILES_HAS_BEEN_SENT,165,Process file has been sent!,Process file has been sent! DE,Process file has been sent! FR,Process file has been sent! IT
PROCESS_FILES_SENDING_FAILED,166,Sending process file has failed!,Sending process file has failed! DE,Sending process file has failed! FR,Sending process file has failed! IT
CHOOSE_THE_CONTRACT_FOR,167,Choose the contract for,Choose the contract for DE,Choose the contract for FR,Choose the contract for IT
AN_INDIVIDUAL_CUSTOMER,168,An individual customer,An individual customer DE,An individual customer FR,An individual customer IT
AN_ORGANIZATION,169,An organization,An organization DE,An organization FR,An organization IT
BROKER_ORGANIZATION_UNIT,170,Broker organization unit,Broker organization unit DE,Broker organization unit FR,Broker organization unit IT
ID,171,Id,Id DE,Id FR,Id IT
FINMA,172,Finma,Finma DE,Finma FR,Finma IT
UID,173,Uid,Uid DE,Uid FR,Uid IT
LEGAL_FORM,174,Legal Form,Legal Form DE,Legal Form FR,Legal Form IT
MEMBERSHIP_TYPE,175,Membership Type,Membership Type DE,Membership Type FR,Membership Type IT
ADDRESS,176,Address,Address DE,Address FR,Address IT
EMAIL,177,Email,Email DE,Email FR,Email IT
PHONE,178,Phone,Phone DE,Phone FR,Phone IT
INITIATED_PROCESS_COUNT,179,Initiated Process Count,Initiated Process Count DE,Initiated Process Count FR,Initiated Process Count IT
SEE_ALL_PROCESSES,180,See All Processes,See All Processes de,See All Processes fr,See All Processes it
ORGANIZATION_UNIT,181,Organization Unit,Organization Unit DE,Organization Unit FR,Organization Unit IT
ORGANIZATION_UNIT_TYPE,182,Organization Unit Type,Organization Unit Type DE,Organization Unit Type FR,Organization Unit Type IT
USER_COUNT,183,User Count,User Count DE,User Count FR,User Count IT
SEE_ALL_USERS,184,See All Users,See All Users DE,See All Users FR,See All Users IT
RECEIVED_FILE_FROM_INSURER,185,Received file from insurer,Received file from insurer DE,Received file from insurer FR,Received file from insurer IT
INSURER_PROCESS_CONFIG_MSG,186,Configure process list for this                  Insurer                  Organizations.,Configure process list for this                  Insurer                  Organizations. DE,Configure process list for this                  Insurer                  Organizations. FR,Configure process list for this                  Insurer                  Organizations. IT
CONFIGURE,187,Configure,Configure DE,Configure FR,Configure IT
VIEW ALL,188,View All,View All DE,View All FR,View All IT
AUTHENTICATED_PROCESSES,189,Authenticated Processes,Authenticated Processes DE,Authenticated Processes FR,Authenticated Processes IT
INSURER_ORGANIZATION_UNIT,190,Insurer Organization Unit,Insurer Organization Unit DE,Insurer Organization Unit FR,Insurer Organization Unit IT
APP_PLATFORM_UILM.UILM.MODULE_NAME,191,Module Name,Module NaME De er,Module Name FR,Module Name IT